com\nedbank\aem\barcode\impl\HelloServiceImpl.class
com\nedbank\aem\barcode\BarcodedFormsServlet.class
com\nedbank\aem\barcode\HelloService.class
com\nedbank\aem\barcode\impl\filters\LoggingFilter.class
